vlsi2_final/bist_sim.vcd
$date
	Sat Apr 25 16:26:04 2026
$end

$version
	Synopsys VCS version U-2023.03-SP2-5_Full64
$end

$timescale
	1s
$end

$comment Csum: 1 0664d476413904f9 $end


$scope module tb_bist $end
$var reg 1 ! start $end
$var reg 1 " rst $end
$var reg 1 # clk $end
$var reg 1 $ csin $end
$var reg 1 % rwbarin $end
$var reg 1 & opr $end
$var reg 6 ' address [5:0] $end
$var reg 8 ( datain [7:0] $end
$var reg 8 ) dataout [7:0] $end
$var reg 1 * fail $end

$scope module dut $end
$var reg 1 + NbarT $end
$var reg 10 , q [9:0] $end
$var reg 1 ! start $end
$var reg 1 " rst $end
$var reg 1 # clk $end
$var reg 1 $ csin $end
$var reg 1 % rwbarin $end
$var reg 1 & opr $end
$var reg 6 ' address [5:0] $end
$var reg 8 ( datain [7:0] $end
$var reg 8 ) dataout [7:0] $end
$var reg 1 * fail $end
$var reg 1 - ld $end
$var reg 1 . cout $end
$var reg 8 / data_t [7:0] $end
$var reg 6 0 ramaddr_sel [5:0] $end
$var reg 8 1 ramin_sel [7:0] $end
$var reg 1 2 rwbar_sel $end
$var reg 1 3 cs_sel $end
$var reg 8 ) ramout [7:0] $end
$var reg 1 4 gt $end
$var reg 1 5 eq $end
$var reg 1 6 lt $end

$scope module u_controller $end
$var reg 1 ! start $end
$var reg 1 " rst $end
$var reg 1 # clk $end
$var reg 1 . cout $end
$var reg 1 + NbarT $end
$var reg 1 - ld $end
$var reg 1 7 state [0:0] $end
$var reg 1 8 next_state [0:0] $end
$upscope $end


$scope module u_counter $end
$var reg 10 9 d_in [9:0] $end
$var reg 1 # clk $end
$var reg 1 - ld $end
$var reg 1 : u_d $end
$var reg 1 ; cen $end
$var reg 10 , q [9:0] $end
$var reg 1 . cout $end
$upscope $end


$scope module u_decoder $end
$var reg 3 < q [2:0] $end
$var reg 8 / data_t [7:0] $end
$upscope $end


$scope module u_addr_mux $end
$var reg 6 ' normal_in [5:0] $end
$var reg 6 = bist_in [5:0] $end
$var reg 1 + NbarT $end
$var reg 6 0 out [5:0] $end
$upscope $end


$scope module u_data_mux $end
$var reg 8 ( normal_in [7:0] $end
$var reg 8 / bist_in [7:0] $end
$var reg 1 + NbarT $end
$var reg 8 1 out [7:0] $end
$upscope $end


$scope module u_sram $end
$var reg 6 0 ramaddr [5:0] $end
$var reg 8 1 ramin [7:0] $end
$var reg 1 2 rwbar $end
$var reg 1 # clk $end
$var reg 1 3 cs $end
$var reg 8 ) ramout [7:0] $end
$var reg 6 > addr_reg [5:0] $end
$upscope $end


$scope module u_comparator $end
$var reg 8 / data_t [7:0] $end
$var reg 8 ) ramout [7:0] $end
$var reg 1 4 gt $end
$var reg 1 5 eq $end
$var reg 1 6 lt $end
$upscope $end

$upscope $end

$upscope $end

$enddefinitions $end

#0
$dumpvars
0+
0;
0#
x.
03
0$
05
x*
04
0-
06
08
1&
1"
0!
x7
x2
x%
bxxxxxx >
bxxxxxxxx /
b00000000 (
bxxxxxxxxxx ,
b00000000 1
b00000000 )
bxxxxxx =
bxxxxxx 0
bxxxxxx '
bxxx <
1:
b0000000000 9
$end
12
b000000 0
1%
b000000 '
#5
1#
0*
07
0.
1-
1;
#10
0#
#15
1#
b0000000000 ,
b000000 =
b000 <
b10101010 /
14
#20
0#
#25
1#
#30
0#
#35
1#
#40
0#
#45
1#
0"
#50
0#
#55
1#
#60
0#
#65
1#
#70
0#
#75
1#
1!
18
#80
0#
#85
1#
0!
08
17
18
0-
1+
13
02
b10101010 1
b00000000 )
#90
0#
#95
1#
b0000000001 ,
b000001 =
b000000 >
b000001 0
#100
0#
#105
1#
b0000000010 ,
b000010 =
b000001 >
b000010 0
#110
0#
#115
1#
b0000000011 ,
b000011 =
b000010 >
b000011 0
#120
0#
#125
1#
b0000000100 ,
b000100 =
b000011 >
b000100 0
#130
0#
#135
1#
b0000000101 ,
b000101 =
b000100 >
b000101 0
#140
0#
#145
1#
b0000000110 ,
b000110 =
b000101 >
b000110 0
#150
0#
#155
1#
b0000000111 ,
b000111 =
b000110 >
b000111 0
#160
0#
#165
1#
b0000001000 ,
b001000 =
b000111 >
b001000 0
#170
0#
#175
1#
b0000001001 ,
b001001 =
b001000 >
b001001 0
#180
0#
#185
1#
b0000001010 ,
b001010 =
b001001 >
b001010 0
#190
0#
#195
1#
b0000001011 ,
b001011 =
b001010 >
b001011 0
#200
0#
#205
1#
b0000001100 ,
b001100 =
b001011 >
b001100 0
#210
0#
#215
1#
b0000001101 ,
b001101 =
b001100 >
b001101 0
#220
0#
#225
1#
b0000001110 ,
b001110 =
b001101 >
b001110 0
#230
0#
#235
1#
b0000001111 ,
b001111 =
b001110 >
b001111 0
#240
0#
#245
1#
b0000010000 ,
b010000 =
b001111 >
b010000 0
#250
0#
#255
1#
b0000010001 ,
b010001 =
b010000 >
b010001 0
#260
0#
#265
1#
b0000010010 ,
b010010 =
b010001 >
b010010 0
#270
0#
#275
1#
b0000010011 ,
b010011 =
b010010 >
b010011 0
#280
0#
#285
1#
b0000010100 ,
b010100 =
b010011 >
b010100 0
#290
0#
#295
1#
b0000010101 ,
b010101 =
b010100 >
b010101 0
#300
0#
#305
1#
b0000010110 ,
b010110 =
b010101 >
b010110 0
#310
0#
#315
1#
b0000010111 ,
b010111 =
b010110 >
b010111 0
#320
0#
#325
1#
b0000011000 ,
b011000 =
b010111 >
b011000 0
#330
0#
#335
1#
b0000011001 ,
b011001 =
b011000 >
b011001 0
#340
0#
#345
1#
b0000011010 ,
b011010 =
b011001 >
b011010 0
#350
0#
#355
1#
b0000011011 ,
b011011 =
b011010 >
b011011 0
#360
0#
#365
1#
b0000011100 ,
b011100 =
b011011 >
b011100 0
#370
0#
#375
1#
b0000011101 ,
b011101 =
b011100 >
b011101 0
#380
0#
#385
1#
b0000011110 ,
b011110 =
b011101 >
b011110 0
#390
0#
#395
1#
b0000011111 ,
b011111 =
b011110 >
b011111 0
#400
0#
#405
1#
b0000100000 ,
b100000 =
b011111 >
b100000 0
#410
0#
#415
1#
b0000100001 ,
b100001 =
b100000 >
b100001 0
#420
0#
#425
1#
b0000100010 ,
b100010 =
b100001 >
b100010 0
#430
0#
#435
1#
b0000100011 ,
b100011 =
b100010 >
b100011 0
#440
0#
#445
1#
b0000100100 ,
b100100 =
b100011 >
b100100 0
#450
0#
#455
1#
b0000100101 ,
b100101 =
b100100 >
b100101 0
#460
0#
#465
1#
b0000100110 ,
b100110 =
b100101 >
b100110 0
#470
0#
#475
1#
b0000100111 ,
b100111 =
b100110 >
b100111 0
#480
0#
#485
1#
b0000101000 ,
b101000 =
b100111 >
b101000 0
#490
0#
#495
1#
b0000101001 ,
b101001 =
b101000 >
b101001 0
#500
0#
#505
1#
b0000101010 ,
b101010 =
b101001 >
b101010 0
#510
0#
#515
1#
b0000101011 ,
b101011 =
b101010 >
b101011 0
#520
0#
#525
1#
b0000101100 ,
b101100 =
b101011 >
b101100 0
#530
0#
#535
1#
b0000101101 ,
b101101 =
b101100 >
b101101 0
#540
0#
#545
1#
b0000101110 ,
b101110 =
b101101 >
b101110 0
#550
0#
#555
1#
b0000101111 ,
b101111 =
b101110 >
b101111 0
#560
0#
#565
1#
b0000110000 ,
b110000 =
b101111 >
b110000 0
#570
0#
#575
1#
b0000110001 ,
b110001 =
b110000 >
b110001 0
#580
0#
#585
1#
b0000110010 ,
b110010 =
b110001 >
b110010 0
#590
0#
#595
1#
b0000110011 ,
b110011 =
b110010 >
b110011 0
#600
0#
#605
1#
b0000110100 ,
b110100 =
b110011 >
b110100 0
#610
0#
#615
1#
b0000110101 ,
b110101 =
b110100 >
b110101 0
#620
0#
#625
1#
b0000110110 ,
b110110 =
b110101 >
b110110 0
#630
0#
#635
1#
b0000110111 ,
b110111 =
b110110 >
b110111 0
#640
0#
#645
1#
b0000111000 ,
b111000 =
b110111 >
b111000 0
#650
0#
#655
1#
b0000111001 ,
b111001 =
b111000 >
b111001 0
#660
0#
#665
1#
b0000111010 ,
b111010 =
b111001 >
b111010 0
#670
0#
#675
1#
b0000111011 ,
b111011 =
b111010 >
b111011 0
#680
0#
#685
1#
b0000111100 ,
b111100 =
b111011 >
b111100 0
#690
0#
#695
1#
b0000111101 ,
b111101 =
b111100 >
b111101 0
#700
0#
#705
1#
b0000111110 ,
b111110 =
b111101 >
b111110 0
#710
0#
#715
1#
b0000111111 ,
b111111 =
b111110 >
b111111 0
#720
0#
#725
1#
b0001000000 ,
b000000 =
b111111 >
12
b000000 0
b10101010 )
04
15
#730
0#
#735
1#
b0001000001 ,
b000001 =
b000000 >
b000001 0
#740
0#
#745
1#
b0001000010 ,
b000010 =
b000001 >
b000010 0
#750
0#
#755
1#
b0001000011 ,
b000011 =
b000010 >
b000011 0
#760
0#
#765
1#
b0001000100 ,
b000100 =
b000011 >
b000100 0
#770
0#
#775
1#
b0001000101 ,
b000101 =
b000100 >
b000101 0
#780
0#
#785
1#
b0001000110 ,
b000110 =
b000101 >
b000110 0
#790
0#
#795
1#
b0001000111 ,
b000111 =
b000110 >
b000111 0
#800
0#
#805
1#
b0001001000 ,
b001000 =
b000111 >
b001000 0
#810
0#
#815
1#
b0001001001 ,
b001001 =
b001000 >
b001001 0
#820
0#
#825
1#
b0001001010 ,
b001010 =
b001001 >
b001010 0
#830
0#
#835
1#
b0001001011 ,
b001011 =
b001010 >
b001011 0
#840
0#
#845
1#
b0001001100 ,
b001100 =
b001011 >
b001100 0
#850
0#
#855
1#
b0001001101 ,
b001101 =
b001100 >
b001101 0
#860
0#
#865
1#
b0001001110 ,
b001110 =
b001101 >
b001110 0
#870
0#
#875
1#
b0001001111 ,
b001111 =
b001110 >
b001111 0
#880
0#
#885
1#
b0001010000 ,
b010000 =
b001111 >
b010000 0
#890
0#
#895
1#
b0001010001 ,
b010001 =
b010000 >
b010001 0
#900
0#
#905
1#
b0001010010 ,
b010010 =
b010001 >
b010010 0
#910
0#
#915
1#
b0001010011 ,
b010011 =
b010010 >
b010011 0
#920
0#
#925
1#
b0001010100 ,
b010100 =
b010011 >
b010100 0
#930
0#
#935
1#
b0001010101 ,
b010101 =
b010100 >
b010101 0
#940
0#
#945
1#
b0001010110 ,
b010110 =
b010101 >
b010110 0
#950
0#
#955
1#
b0001010111 ,
b010111 =
b010110 >
b010111 0
#960
0#
#965
1#
b0001011000 ,
b011000 =
b010111 >
b011000 0
#970
0#
#975
1#
b0001011001 ,
b011001 =
b011000 >
b011001 0
#980
0#
#985
1#
b0001011010 ,
b011010 =
b011001 >
b011010 0
#990
0#
#995
1#
b0001011011 ,
b011011 =
b011010 >
b011011 0
#1000
0#
#1005
1#
b0001011100 ,
b011100 =
b011011 >
b011100 0
#1010
0#
#1015
1#
b0001011101 ,
b011101 =
b011100 >
b011101 0
#1020
0#
#1025
1#
b0001011110 ,
b011110 =
b011101 >
b011110 0
#1030
0#
#1035
1#
b0001011111 ,
b011111 =
b011110 >
b011111 0
#1040
0#
#1045
1#
b0001100000 ,
b100000 =
b011111 >
b100000 0
#1050
0#
#1055
1#
b0001100001 ,
b100001 =
b100000 >
b100001 0
#1060
0#
#1065
1#
b0001100010 ,
b100010 =
b100001 >
b100010 0
#1070
0#
#1075
1#
b0001100011 ,
b100011 =
b100010 >
b100011 0
#1080
0#
#1085
1#
b0001100100 ,
b100100 =
b100011 >
b100100 0
#1090
0#
#1095
1#
b0001100101 ,
b100101 =
b100100 >
b100101 0
#1100
0#
#1105
1#
b0001100110 ,
b100110 =
b100101 >
b100110 0
#1110
0#
#1115
1#
b0001100111 ,
b100111 =
b100110 >
b100111 0
#1120
0#
#1125
1#
b0001101000 ,
b101000 =
b100111 >
b101000 0
#1130
0#
#1135
1#
b0001101001 ,
b101001 =
b101000 >
b101001 0
#1140
0#
#1145
1#
b0001101010 ,
b101010 =
b101001 >
b101010 0
#1150
0#
#1155
1#
b0001101011 ,
b101011 =
b101010 >
b101011 0
#1160
0#
#1165
1#
b0001101100 ,
b101100 =
b101011 >
b101100 0
#1170
0#
#1175
1#
b0001101101 ,
b101101 =
b101100 >
b101101 0
#1180
0#
#1185
1#
b0001101110 ,
b101110 =
b101101 >
b101110 0
#1190
0#
#1195
1#
b0001101111 ,
b101111 =
b101110 >
b101111 0
#1200
0#
#1205
1#
b0001110000 ,
b110000 =
b101111 >
b110000 0
#1210
0#
#1215
1#
b0001110001 ,
b110001 =
b110000 >
b110001 0
#1220
0#
#1225
1#
b0001110010 ,
b110010 =
b110001 >
b110010 0
#1230
0#
#1235
1#
b0001110011 ,
b110011 =
b110010 >
b110011 0
#1240
0#
#1245
1#
b0001110100 ,
b110100 =
b110011 >
b110100 0
#1250
0#
#1255
1#
b0001110101 ,
b110101 =
b110100 >
b110101 0
#1260
0#
#1265
1#
b0001110110 ,
b110110 =
b110101 >
b110110 0
#1270
0#
#1275
1#
b0001110111 ,
b110111 =
b110110 >
b110111 0
#1280
0#
#1285
1#
b0001111000 ,
b111000 =
b110111 >
b111000 0
#1290
0#
#1295
1#
b0001111001 ,
b111001 =
b111000 >
b111001 0
#1300
0#
#1305
1#
b0001111010 ,
b111010 =
b111001 >
b111010 0
#1310
0#
#1315
1#
b0001111011 ,
b111011 =
b111010 >
b111011 0
#1320
0#
#1325
1#
b0001111100 ,
b111100 =
b111011 >
b111100 0
#1330
0#
#1335
1#
b0001111101 ,
b111101 =
b111100 >
b111101 0
#1340
0#
#1345
1#
b0001111110 ,
b111110 =
b111101 >
b111110 0
#1350
0#
#1355
1#
b0001111111 ,
b111111 =
b111110 >
b111111 0
#1360
0#
#1365
1#
b0010000000 ,
b000000 =
b001 <
b111111 >
02
b000000 0
b01010101 /
b00000000 )
14
05
b01010101 1
#1370
0#
#1375
1#
b0010000001 ,
b000001 =
b000000 >
b000001 0
#1380
0#
#1385
1#
b0010000010 ,
b000010 =
b000001 >
b000010 0
#1390
0#
#1395
1#
b0010000011 ,
b000011 =
b000010 >
b000011 0
#1400
0#
#1405
1#
b0010000100 ,
b000100 =
b000011 >
b000100 0
#1410
0#
#1415
1#
b0010000101 ,
b000101 =
b000100 >
b000101 0
#1420
0#
#1425
1#
b0010000110 ,
b000110 =
b000101 >
b000110 0
#1430
0#
#1435
1#
b0010000111 ,
b000111 =
b000110 >
b000111 0
#1440
0#
#1445
1#
b0010001000 ,
b001000 =
b000111 >
b001000 0
#1450
0#
#1455
1#
b0010001001 ,
b001001 =
b001000 >
b001001 0
#1460
0#
#1465
1#
b0010001010 ,
b001010 =
b001001 >
b001010 0
#1470
0#
#1475
1#
b0010001011 ,
b001011 =
b001010 >
b001011 0
#1480
0#
#1485
1#
b0010001100 ,
b001100 =
b001011 >
b001100 0
#1490
0#
#1495
1#
b0010001101 ,
b001101 =
b001100 >
b001101 0
#1500
0#
#1505
1#
b0010001110 ,
b001110 =
b001101 >
b001110 0
#1510
0#
#1515
1#
b0010001111 ,
b001111 =
b001110 >
b001111 0
#1520
0#
#1525
1#
b0010010000 ,
b010000 =
b001111 >
b010000 0
#1530
0#
#1535
1#
b0010010001 ,
b010001 =
b010000 >
b010001 0
#1540
0#
#1545
1#
b0010010010 ,
b010010 =
b010001 >
b010010 0
#1550
0#
#1555
1#
b0010010011 ,
b010011 =
b010010 >
b010011 0
#1560
0#
#1565
1#
b0010010100 ,
b010100 =
b010011 >
b010100 0
#1570
0#
#1575
1#
b0010010101 ,
b010101 =
b010100 >
b010101 0
#1580
0#
#1585
1#
b0010010110 ,
b010110 =
b010101 >
b010110 0
#1590
0#
#1595
1#
b0010010111 ,
b010111 =
b010110 >
b010111 0
#1600
0#
#1605
1#
b0010011000 ,
b011000 =
b010111 >
b011000 0
#1610
0#
#1615
1#
b0010011001 ,
b011001 =
b011000 >
b011001 0
#1620
0#
#1625
1#
b0010011010 ,
b011010 =
b011001 >
b011010 0
#1630
0#
#1635
1#
b0010011011 ,
b011011 =
b011010 >
b011011 0
#1640
0#
#1645
1#
b0010011100 ,
b011100 =
b011011 >
b011100 0
#1650
0#
#1655
1#
b0010011101 ,
b011101 =
b011100 >
b011101 0
#1660
0#
#1665
1#
b0010011110 ,
b011110 =
b011101 >
b011110 0
#1670
0#
#1675
1#
b0010011111 ,
b011111 =
b011110 >
b011111 0
#1680
0#
#1685
1#
b0010100000 ,
b100000 =
b011111 >
b100000 0
#1690
0#
#1695
1#
b0010100001 ,
b100001 =
b100000 >
b100001 0
#1700
0#
#1705
1#
b0010100010 ,
b100010 =
b100001 >
b100010 0
#1710
0#
#1715
1#
b0010100011 ,
b100011 =
b100010 >
b100011 0
#1720
0#
#1725
1#
b0010100100 ,
b100100 =
b100011 >
b100100 0
#1730
0#
#1735
1#
b0010100101 ,
b100101 =
b100100 >
b100101 0
#1740
0#
#1745
1#
b0010100110 ,
b100110 =
b100101 >
b100110 0
#1750
0#
#1755
1#
b0010100111 ,
b100111 =
b100110 >
b100111 0
#1760
0#
#1765
1#
b0010101000 ,
b101000 =
b100111 >
b101000 0
#1770
0#
#1775
1#
b0010101001 ,
b101001 =
b101000 >
b101001 0
#1780
0#
#1785
1#
b0010101010 ,
b101010 =
b101001 >
b101010 0
#1790
0#
#1795
1#
b0010101011 ,
b101011 =
b101010 >
b101011 0
#1800
0#
#1805
1#
b0010101100 ,
b101100 =
b101011 >
b101100 0
#1810
0#
#1815
1#
b0010101101 ,
b101101 =
b101100 >
b101101 0
#1820
0#
#1825
1#
b0010101110 ,
b101110 =
b101101 >
b101110 0
#1830
0#
#1835
1#
b0010101111 ,
b101111 =
b101110 >
b101111 0
#1840
0#
#1845
1#
b0010110000 ,
b110000 =
b101111 >
b110000 0
#1850
0#
#1855
1#
b0010110001 ,
b110001 =
b110000 >
b110001 0
#1860
0#
#1865
1#
b0010110010 ,
b110010 =
b110001 >
b110010 0
#1870
0#
#1875
1#
b0010110011 ,
b110011 =
b110010 >
b110011 0
#1880
0#
#1885
1#
b0010110100 ,
b110100 =
b110011 >
b110100 0
#1890
0#
#1895
1#
b0010110101 ,
b110101 =
b110100 >
b110101 0
#1900
0#
#1905
1#
b0010110110 ,
b110110 =
b110101 >
b110110 0
#1910
0#
#1915
1#
b0010110111 ,
b110111 =
b110110 >
b110111 0
#1920
0#
#1925
1#
b0010111000 ,
b111000 =
b110111 >
b111000 0
#1930
0#
#1935
1#
b0010111001 ,
b111001 =
b111000 >
b111001 0
#1940
0#
#1945
1#
b0010111010 ,
b111010 =
b111001 >
b111010 0
#1950
0#
#1955
1#
b0010111011 ,
b111011 =
b111010 >
b111011 0
#1960
0#
#1965
1#
b0010111100 ,
b111100 =
b111011 >
b111100 0
#1970
0#
#1975
1#
b0010111101 ,
b111101 =
b111100 >
b111101 0
#1980
0#
#1985
1#
b0010111110 ,
b111110 =
b111101 >
b111110 0
#1990
0#
#1995
1#
b0010111111 ,
b111111 =
b111110 >
b111111 0
#2000
0#
#2005
1#
b0011000000 ,
b000000 =
b111111 >
12
b000000 0
b01010101 )
04
15
#2010
0#
#2015
1#
b0011000001 ,
b000001 =
b000000 >
b000001 0
#2020
0#
#2025
1#
b0011000010 ,
b000010 =
b000001 >
b000010 0
#2030
0#
#2035
1#
b0011000011 ,
b000011 =
b000010 >
b000011 0
#2040
0#
#2045
1#
b0011000100 ,
b000100 =
b000011 >
b000100 0
#2050
0#
#2055
1#
b0011000101 ,
b000101 =
b000100 >
b000101 0
#2060
0#
#2065
1#
b0011000110 ,
b000110 =
b000101 >
b000110 0
#2070
0#
#2075
1#
b0011000111 ,
b000111 =
b000110 >
b000111 0
#2080
0#
#2085
1#
b0011001000 ,
b001000 =
b000111 >
b001000 0
#2090
0#
#2095
1#
b0011001001 ,
b001001 =
b001000 >
b001001 0
#2100
0#
#2105
1#
b0011001010 ,
b001010 =
b001001 >
b001010 0
#2110
0#
#2115
1#
b0011001011 ,
b001011 =
b001010 >
b001011 0
#2120
0#
#2125
1#
b0011001100 ,
b001100 =
b001011 >
b001100 0
#2130
0#
#2135
1#
b0011001101 ,
b001101 =
b001100 >
b001101 0
#2140
0#
#2145
1#
b0011001110 ,
b001110 =
b001101 >
b001110 0
#2150
0#
#2155
1#
b0011001111 ,
b001111 =
b001110 >
b001111 0
#2160
0#
#2165
1#
b0011010000 ,
b010000 =
b001111 >
b010000 0
#2170
0#
#2175
1#
b0011010001 ,
b010001 =
b010000 >
b010001 0
#2180
0#
#2185
1#
b0011010010 ,
b010010 =
b010001 >
b010010 0
#2190
0#
#2195
1#
b0011010011 ,
b010011 =
b010010 >
b010011 0
#2200
0#
#2205
1#
b0011010100 ,
b010100 =
b010011 >
b010100 0
#2210
0#
#2215
1#
b0011010101 ,
b010101 =
b010100 >
b010101 0
#2220
0#
#2225
1#
b0011010110 ,
b010110 =
b010101 >
b010110 0
#2230
0#
#2235
1#
b0011010111 ,
b010111 =
b010110 >
b010111 0
#2240
0#
#2245
1#
b0011011000 ,
b011000 =
b010111 >
b011000 0
#2250
0#
#2255
1#
b0011011001 ,
b011001 =
b011000 >
b011001 0
#2260
0#
#2265
1#
b0011011010 ,
b011010 =
b011001 >
b011010 0
#2270
0#
#2275
1#
b0011011011 ,
b011011 =
b011010 >
b011011 0
#2280
0#
#2285
1#
b0011011100 ,
b011100 =
b011011 >
b011100 0
#2290
0#
#2295
1#
b0011011101 ,
b011101 =
b011100 >
b011101 0
#2300
0#
#2305
1#
b0011011110 ,
b011110 =
b011101 >
b011110 0
#2310
0#
#2315
1#
b0011011111 ,
b011111 =
b011110 >
b011111 0
#2320
0#
#2325
1#
b0011100000 ,
b100000 =
b011111 >
b100000 0
#2330
0#
#2335
1#
b0011100001 ,
b100001 =
b100000 >
b100001 0
#2340
0#
#2345
1#
b0011100010 ,
b100010 =
b100001 >
b100010 0
#2350
0#
#2355
1#
b0011100011 ,
b100011 =
b100010 >
b100011 0
#2360
0#
#2365
1#
b0011100100 ,
b100100 =
b100011 >
b100100 0
#2370
0#
#2375
1#
b0011100101 ,
b100101 =
b100100 >
b100101 0
#2380
0#
#2385
1#
b0011100110 ,
b100110 =
b100101 >
b100110 0
#2390
0#
#2395
1#
b0011100111 ,
b100111 =
b100110 >
b100111 0
#2400
0#
#2405
1#
b0011101000 ,
b101000 =
b100111 >
b101000 0
#2410
0#
#2415
1#
b0011101001 ,
b101001 =
b101000 >
b101001 0
#2420
0#
#2425
1#
b0011101010 ,
b101010 =
b101001 >
b101010 0
#2430
0#
#2435
1#
b0011101011 ,
b101011 =
b101010 >
b101011 0
#2440
0#
#2445
1#
b0011101100 ,
b101100 =
b101011 >
b101100 0
#2450
0#
#2455
1#
b0011101101 ,
b101101 =
b101100 >
b101101 0
#2460
0#
#2465
1#
b0011101110 ,
b101110 =
b101101 >
b101110 0
#2470
0#
#2475
1#
b0011101111 ,
b101111 =
b101110 >
b101111 0
#2480
0#
#2485
1#
b0011110000 ,
b110000 =
b101111 >
b110000 0
#2490
0#
#2495
1#
b0011110001 ,
b110001 =
b110000 >
b110001 0
#2500
0#
#2505
1#
b0011110010 ,
b110010 =
b110001 >
b110010 0
#2510
0#
#2515
1#
b0011110011 ,
b110011 =
b110010 >
b110011 0
#2520
0#
#2525
1#
b0011110100 ,
b110100 =
b110011 >
b110100 0
#2530
0#
#2535
1#
b0011110101 ,
b110101 =
b110100 >
b110101 0
#2540
0#
#2545
1#
b0011110110 ,
b110110 =
b110101 >
b110110 0
#2550
0#
#2555
1#
b0011110111 ,
b110111 =
b110110 >
b110111 0
#2560
0#
#2565
1#
b0011111000 ,
b111000 =
b110111 >
b111000 0
#2570
0#
#2575
1#
b0011111001 ,
b111001 =
b111000 >
b111001 0
#2580
0#
#2585
1#
b0011111010 ,
b111010 =
b111001 >
b111010 0
#2590
0#
#2595
1#
b0011111011 ,
b111011 =
b111010 >
b111011 0
#2600
0#
#2605
1#
b0011111100 ,
b111100 =
b111011 >
b111100 0
#2610
0#
#2615
1#
b0011111101 ,
b111101 =
b111100 >
b111101 0
#2620
0#
#2625
1#
b0011111110 ,
b111110 =
b111101 >
b111110 0
#2630
0#
#2635
1#
b0011111111 ,
b111111 =
b111110 >
b111111 0
#2640
0#
#2645
1#
b0100000000 ,
b000000 =
b010 <
b111111 >
02
b000000 0
b11110000 /
b00000000 )
14
05
b11110000 1
#2650
0#
#2655
1#
b0100000001 ,
b000001 =
b000000 >
b000001 0
#2660
0#
#2665
1#
b0100000010 ,
b000010 =
b000001 >
b000010 0
#2670
0#
#2675
1#
b0100000011 ,
b000011 =
b000010 >
b000011 0
#2680
0#
#2685
1#
b0100000100 ,
b000100 =
b000011 >
b000100 0
#2690
0#
#2695
1#
b0100000101 ,
b000101 =
b000100 >
b000101 0
#2700
0#
#2705
1#
b0100000110 ,
b000110 =
b000101 >
b000110 0
#2710
0#
#2715
1#
b0100000111 ,
b000111 =
b000110 >
b000111 0
#2720
0#
#2725
1#
b0100001000 ,
b001000 =
b000111 >
b001000 0
#2730
0#
#2735
1#
b0100001001 ,
b001001 =
b001000 >
b001001 0
#2740
0#
#2745
1#
b0100001010 ,
b001010 =
b001001 >
b001010 0
#2750
0#
#2755
1#
b0100001011 ,
b001011 =
b001010 >
b001011 0
#2760
0#
#2765
1#
b0100001100 ,
b001100 =
b001011 >
b001100 0
#2770
0#
#2775
1#
b0100001101 ,
b001101 =
b001100 >
b001101 0
#2780
0#
#2785
1#
b0100001110 ,
b001110 =
b001101 >
b001110 0
#2790
0#
#2795
1#
b0100001111 ,
b001111 =
b001110 >
b001111 0
#2800
0#
#2805
1#
b0100010000 ,
b010000 =
b001111 >
b010000 0
#2810
0#
#2815
1#
b0100010001 ,
b010001 =
b010000 >
b010001 0
#2820
0#
#2825
1#
b0100010010 ,
b010010 =
b010001 >
b010010 0
#2830
0#
#2835
1#
b0100010011 ,
b010011 =
b010010 >
b010011 0
#2840
0#
#2845
1#
b0100010100 ,
b010100 =
b010011 >
b010100 0
#2850
0#
#2855
1#
b0100010101 ,
b010101 =
b010100 >
b010101 0
#2860
0#
#2865
1#
b0100010110 ,
b010110 =
b010101 >
b010110 0
#2870
0#
#2875
1#
b0100010111 ,
b010111 =
b010110 >
b010111 0
#2880
0#
#2885
1#
b0100011000 ,
b011000 =
b010111 >
b011000 0
#2890
0#
#2895
1#
b0100011001 ,
b011001 =
b011000 >
b011001 0
#2900
0#
#2905
1#
b0100011010 ,
b011010 =
b011001 >
b011010 0
#2910
0#
#2915
1#
b0100011011 ,
b011011 =
b011010 >
b011011 0
#2920
0#
#2925
1#
b0100011100 ,
b011100 =
b011011 >
b011100 0
#2930
0#
#2935
1#
b0100011101 ,
b011101 =
b011100 >
b011101 0
#2940
0#
#2945
1#
b0100011110 ,
b011110 =
b011101 >
b011110 0
#2950
0#
#2955
1#
b0100011111 ,
b011111 =
b011110 >
b011111 0
#2960
0#
#2965
1#
b0100100000 ,
b100000 =
b011111 >
b100000 0
#2970
0#
#2975
1#
b0100100001 ,
b100001 =
b100000 >
b100001 0
#2980
0#
#2985
1#
b0100100010 ,
b100010 =
b100001 >
b100010 0
#2990
0#
#2995
1#
b0100100011 ,
b100011 =
b100010 >
b100011 0
#3000
0#
#3005
1#
b0100100100 ,
b100100 =
b100011 >
b100100 0
#3010
0#
#3015
1#
b0100100101 ,
b100101 =
b100100 >
b100101 0
#3020
0#
#3025
1#
b0100100110 ,
b100110 =
b100101 >
b100110 0
#3030
0#
#3035
1#
b0100100111 ,
b100111 =
b100110 >
b100111 0
#3040
0#
#3045
1#
b0100101000 ,
b101000 =
b100111 >
b101000 0
#3050
0#
#3055
1#
b0100101001 ,
b101001 =
b101000 >
b101001 0
#3060
0#
#3065
1#
b0100101010 ,
b101010 =
b101001 >
b101010 0
#3070
0#
#3075
1#
b0100101011 ,
b101011 =
b101010 >
b101011 0
#3080
0#
#3085
1#
b0100101100 ,
b101100 =
b101011 >
b101100 0
#3090
0#
#3095
1#
b0100101101 ,
b101101 =
b101100 >
b101101 0
#3100
0#
#3105
1#
b0100101110 ,
b101110 =
b101101 >
b101110 0
#3110
0#
#3115
1#
b0100101111 ,
b101111 =
b101110 >
b101111 0
#3120
0#
#3125
1#
b0100110000 ,
b110000 =
b101111 >
b110000 0
#3130
0#
#3135
1#
b0100110001 ,
b110001 =
b110000 >
b110001 0
#3140
0#
#3145
1#
b0100110010 ,
b110010 =
b110001 >
b110010 0
#3150
0#
#3155
1#
b0100110011 ,
b110011 =
b110010 >
b110011 0
#3160
0#
#3165
1#
b0100110100 ,
b110100 =
b110011 >
b110100 0
#3170
0#
#3175
1#
b0100110101 ,
b110101 =
b110100 >
b110101 0
#3180
0#
#3185
1#
b0100110110 ,
b110110 =
b110101 >
b110110 0
#3190
0#
#3195
1#
b0100110111 ,
b110111 =
b110110 >
b110111 0
#3200
0#
#3205
1#
b0100111000 ,
b111000 =
b110111 >
b111000 0
#3210
0#
#3215
1#
b0100111001 ,
b111001 =
b111000 >
b111001 0
#3220
0#
#3225
1#
b0100111010 ,
b111010 =
b111001 >
b111010 0
#3230
0#
#3235
1#
b0100111011 ,
b111011 =
b111010 >
b111011 0
#3240
0#
#3245
1#
b0100111100 ,
b111100 =
b111011 >
b111100 0
#3250
0#
#3255
1#
b0100111101 ,
b111101 =
b111100 >
b111101 0
#3260
0#
#3265
1#
b0100111110 ,
b111110 =
b111101 >
b111110 0
#3270
0#
#3275
1#
b0100111111 ,
b111111 =
b111110 >
b111111 0
#3280
0#
#3285
1#
b0101000000 ,
b000000 =
b111111 >
12
b000000 0
b11110000 )
04
15
#3290
0#
#3295
1#
b0101000001 ,
b000001 =
b000000 >
b000001 0
#3300
0#
#3305
1#
b0101000010 ,
b000010 =
b000001 >
b000010 0
#3310
0#
#3315
1#
b0101000011 ,
b000011 =
b000010 >
b000011 0
#3320
0#
#3325
1#
b0101000100 ,
b000100 =
b000011 >
b000100 0
